<?xml version="1.0" encoding="utf-8"?>
<!-- Generator: Adobe Illustrator 25.0.1, SVG Export Plug-In . SVG Version: 6.00 Build 0)  -->
<svg version="1.1" id="Capa_1" xmlns="http://www.w3.org/2000/svg" xmlns:xlink="http://www.w3.org/1999/xlink" x="0px" y="0px"
	 viewBox="0 0 512 512" style="enable-background:new 0 0 512 512;" xml:space="preserve">
<style type="text/css">
	.st0{fill:url(#SVGID_1_);}
	.st1{fill:url(#SVGID_2_);}
</style>
<g>
	<g>
		
			<linearGradient id="SVGID_1_" gradientUnits="userSpaceOnUse" x1="256" y1="-9.094947e-13" x2="256" y2="512" gradientTransform="matrix(1 0 0 -1 0 512)">
			<stop  offset="0" style="stop-color:#C3FFE8"/>
			<stop  offset="0.9973" style="stop-color:#F0FFF4"/>
		</linearGradient>
		<circle class="st0" cx="256" cy="256" r="256"/>
	</g>
	<g>
		
			<linearGradient id="SVGID_2_" gradientUnits="userSpaceOnUse" x1="256" y1="105" x2="256" y2="407" gradientTransform="matrix(1 0 0 -1 0 512)">
			<stop  offset="0" style="stop-color:#9CFFAC"/>
			<stop  offset="1" style="stop-color:#00B59C"/>
		</linearGradient>
		<path class="st1" d="M229.4,407h53.3v-88.8h-53.3V407z M256,158.3c-24.5,0-44.4,19.9-44.4,44.4s19.9,44.4,44.4,44.4
			s44.4-19.9,44.4-44.4S280.5,158.3,256,158.3L256,158.3z M105,202.7v26.6h26.6c4.9,0,8.9,4,8.9,8.9s-4,8.9-8.9,8.9H105v17.8h26.6
			c4.9,0,8.9,4,8.9,8.9s-4,8.9-8.9,8.9H105v17.8h26.6c4.9,0,8.9,4,8.9,8.9c0,4.9-4,8.9-8.9,8.9H105v17.8h26.6c4.9,0,8.9,4,8.9,8.9
			c0,4.9-4,8.9-8.9,8.9H105v44.4c0,4.9,4,8.9,8.9,8.9h44.4V193.8h-44.4C109,193.8,105,197.8,105,202.7L105,202.7z M380.4,229.4H407
			v-26.6c0-4.9-4-8.9-8.9-8.9h-44.4V407h44.4c4.9,0,8.9-4,8.9-8.9v-44.4h-26.6c-4.9,0-8.9-4-8.9-8.9c0-4.9,4-8.9,8.9-8.9H407v-17.8
			h-26.6c-4.9,0-8.9-4-8.9-8.9s4-8.9,8.9-8.9H407v-17.8h-26.6c-4.9,0-8.9-4-8.9-8.9s4-8.9,8.9-8.9H407v-17.8h-26.6
			c-4.9,0-8.9-4-8.9-8.9S375.4,229.4,380.4,229.4L380.4,229.4z M371.5,113.9c0-4.9-4-8.9-8.9-8.9c-23.2,0-188,0-213.2,0
			c-4.9,0-8.9,4-8.9,8.9s4,8.9,8.9,8.9h26.6v275.4c0,4.9,4,8.9,8.9,8.9h26.6v-97.7c0-4.9,4-8.9,8.9-8.9h71.1c4.9,0,8.9,4,8.9,8.9
			V407h26.6c4.9,0,8.9-4,8.9-8.9V122.8h26.6C367.5,122.8,371.5,118.8,371.5,113.9z M256,264.9c-34.3,0-62.2-27.9-62.2-62.2
			s27.9-62.2,62.2-62.2s62.2,27.9,62.2,62.2S290.3,264.9,256,264.9z"/>
	</g>
</g>
</svg>
